<svg width="277" height="34" viewBox="0 0 277 34" fill="none" xmlns="http://www.w3.org/2000/svg">
<path d="M39.0839 24.0645H38.9926V24.2516L34.8683 28.0653H11.1672L0 15.7835V27.8673L5.68967 33.4602H40.703L46.4678 27.794V19.7382L39.0839 12.61V24.0645ZM157.281 24.0645H157.189V24.2516L153.065 28.0653H129.364L118.194 15.7781V27.8618L123.887 33.4548H158.897L164.662 27.7886V19.7382L157.281 12.61V24.0645ZM63.3247 0.0813722L58.2446 5.8371V34L58.7198 33.5172C59.3616 33.4738 63.118 33.5172 65.454 33.566H65.7816V8.96721H71.4202L75.5821 33.7071H83.1003L76.9273 0.0813722H63.3247ZM0 5.60112V12.9002L7.46181 20.7662V15.9761L7.38932 15.9001V9.49342L11.2397 5.31903H34.9408L46.3927 16.7328V5.51974L40.7003 0.0759474L5.31644 0L0 5.60112ZM87.8018 0L83.3473 23.1341L83.3339 23.1938L85.1382 33.3843L88.1992 33.4629L92.7289 8.75564H98.2736V33.7098H105.709V5.62282L100.623 0H87.8018ZM118.194 5.60112V12.9002L125.661 20.777V15.9761L125.589 15.9001V9.49342L129.442 5.32174H153.143L164.595 16.7328V5.51974L158.897 0.0759474L123.513 0L118.194 5.60112ZM209.019 0L216.685 5.98085V24.154L211.133 28.0598H185.506V5.51161H212.483L205.507 0.0189868H177.771V33.4629H218.726L224.23 27.9378V5.51161L217.241 0H209.019ZM242.255 0.0732349L232.28 33.4548H239.887L247.658 8.77192L256.902 8.79091L253.538 0L242.255 0.0732349ZM255.887 0L268.647 33.2541L268.725 33.4629H277L264.104 0.206143L264.023 0H255.887Z" fill="white"/>
</svg>
